{
  "service_name" : "ArduinoLightDetector",
  "service_description": "SiLA2 service for an Arduino based light detector",
  "authors"      : "mark doerr",
  "creation_date" : "20191104",
  "version" : "0.1.1",
  "vendor_url" : "lara.uni-greifswald.de",
  "SiLA_standard_feature_list" : ["SiLAService"],
  "SiLA_feature_list" : [],
  "communication_port" : "50051",
  "IP_address" : "127.0.0.1",
  "hostname" : "localhost"
}
